<svg xmlns="http://www.w3.org/2000/svg" width="123" height="36" viewBox="0 0 123 36">
  <g id="Logo" transform="translate(12597 4861)">
    <text id="Cartsy." transform="translate(-12597 -4832)" fill="#212121" font-size="30" font-family="SFProDisplay-Bold, SF Pro Display" font-weight="700"><tspan x="0" y="0">CARTSY.</tspan></text>
  </g>
</svg>
